<?xml version="1.0" encoding="utf-8"?>
<!-- Generator: Adobe Illustrator 21.0.2, SVG Export Plug-In . SVG Version: 6.00 Build 0)  -->
<svg version="1.1" id="Camada_1" xmlns="http://www.w3.org/2000/svg" xmlns:xlink="http://www.w3.org/1999/xlink" x="0px" y="0px"
	 viewBox="0 0 40.8 47.3" style="enable-background:new 0 0 40.8 47.3;" xml:space="preserve">
<style type="text/css">
	.st0{fill:#FFFFFF;}
</style>
<title>icon-hidraulica</title>
<g>
	<g>
		<g>
			<path class="st0" d="M10.3,10.4c0.3-0.4,0.3-0.9,0.1-1.3c-0.2-0.4-0.5-0.7-1-0.8c-0.1,0-0.1-0.1-0.1-0.1C9.3,7.7,9,7.4,8.6,7.2
				C8.1,7,7.7,7.1,7.3,7.3c0,0-0.1,0-0.1,0C6.7,7.1,6.3,7,5.8,7.2C5.4,7.4,5.1,7.7,5,8.2C5,8.2,5,8.3,4.9,8.3
				c-0.4,0.1-0.8,0.4-1,0.8S3.8,10,4.1,10.4c0,0,0,0.1,0,0.1c-0.3,0.4-0.3,0.9-0.1,1.3c0.2,0.4,0.5,0.7,1,0.8C5,12.7,5,12.7,5,12.7
				c0.1,0.4,0.4,0.8,0.8,1c0.4,0.2,0.9,0.1,1.3-0.1c0,0,0.1,0,0.1,0c0.2,0.2,0.5,0.2,0.8,0.2c0.2,0,0.4,0,0.5-0.1
				c0.4-0.2,0.7-0.5,0.8-1c0-0.1,0.1-0.1,0.1-0.1c0.4-0.1,0.8-0.4,1-0.8c0.2-0.4,0.1-0.9-0.1-1.3C10.3,10.5,10.3,10.4,10.3,10.4z
				 M9.3,11.2c0,0,0,0.1,0,0.1c0,0,0,0.1-0.1,0.1c-0.5,0.1-1,0.5-1.1,1.1c0,0.1,0,0.1-0.1,0.1c0,0-0.1,0-0.1,0
				c-0.2-0.2-0.5-0.2-0.8-0.2c-0.3,0-0.5,0.1-0.8,0.2c0,0-0.1,0-0.1,0c0,0-0.1,0-0.1-0.1c-0.1-0.5-0.5-1-1.1-1.1
				c-0.1,0-0.1,0-0.1-0.1c0,0,0-0.1,0-0.1c0.3-0.5,0.3-1.1,0-1.5c0,0,0-0.1,0-0.1c0,0,0-0.1,0.1-0.1c0.5-0.1,1-0.5,1.1-1.1
				c0-0.1,0-0.1,0.1-0.1c0,0,0.1,0,0.1,0c0.5,0.3,1.1,0.3,1.5,0c0,0,0.1,0,0.1,0c0,0,0.1,0,0.1,0.1c0.1,0.5,0.5,1,1.1,1.1
				c0.1,0,0.1,0,0.1,0.1c0,0,0,0.1,0,0.1C9,10.2,9,10.8,9.3,11.2z"/>
			<path class="st0" d="M36.7,36.9c0,0,0-0.1,0-0.1c0.3-0.4,0.3-0.9,0.1-1.3c-0.2-0.4-0.5-0.7-1-0.8c-0.1,0-0.1-0.1-0.1-0.1
				c-0.1-0.4-0.4-0.8-0.8-1c-0.4-0.2-0.9-0.1-1.3,0.1c0,0-0.1,0-0.1,0c-0.4-0.3-0.9-0.3-1.3-0.1c-0.4,0.2-0.7,0.5-0.8,1
				c0,0.1-0.1,0.1-0.1,0.1c-0.4,0.1-0.8,0.4-1,0.8c-0.2,0.4-0.1,0.9,0.1,1.3c0,0,0,0.1,0,0.1c-0.3,0.4-0.3,0.9-0.1,1.3
				c0.2,0.4,0.5,0.7,1,0.8c0.1,0,0.1,0.1,0.1,0.1c0.1,0.4,0.4,0.8,0.8,1c0.4,0.2,0.9,0.1,1.3-0.1c0,0,0.1,0,0.1,0
				c0.2,0.2,0.5,0.2,0.8,0.2c0.2,0,0.4,0,0.5-0.1c0.4-0.2,0.7-0.5,0.8-1c0-0.1,0.1-0.1,0.1-0.1c0.4-0.1,0.8-0.4,1-0.8
				C37,37.8,37,37.3,36.7,36.9z M35.7,37.6c0,0,0,0.1,0,0.1c0,0,0,0.1-0.1,0.1c-0.5,0.1-1,0.5-1.1,1.1c0,0.1,0,0.1-0.1,0.1
				c0,0-0.1,0-0.1,0c-0.2-0.2-0.5-0.2-0.8-0.2c-0.3,0-0.5,0.1-0.8,0.2c0,0-0.1,0-0.1,0c0,0-0.1,0-0.1-0.1c-0.1-0.5-0.5-1-1.1-1.1
				c-0.1,0-0.1,0-0.1-0.1c0,0,0-0.1,0-0.1c0.3-0.5,0.3-1.1,0-1.5c0,0,0-0.1,0-0.1c0,0,0-0.1,0.1-0.1c0.5-0.1,1-0.5,1.1-1.1
				c0-0.1,0-0.1,0.1-0.1c0,0,0.1,0,0.1,0c0.5,0.3,1.1,0.3,1.5,0c0,0,0.1,0,0.1,0c0,0,0.1,0,0.1,0.1c0.1,0.5,0.5,1,1.1,1.1
				c0.1,0,0.1,0,0.1,0.1c0,0,0,0.1,0,0.1C35.4,36.6,35.4,37.2,35.7,37.6z"/>
			<path class="st0" d="M33.6,31c-0.6,0-1.1,0.1-1.7,0.2l-7.6-7.6l7.6-7.6c1.1,0.3,2.3,0.3,3.5-0.1c1.7-0.6,3.1-1.9,3.7-3.7
				c0.4-1.3,0.4-2.6-0.1-3.9l-0.3-0.9l-4.1,4.1c-0.2,0.2-0.6,0.2-0.9,0l-1.3-1.3c-0.2-0.2-0.2-0.6,0-0.9l4.1-4.1L35.6,5
				c-1.3-0.5-2.6-0.5-3.9-0.1c-1.7,0.6-3.1,1.9-3.7,3.7c-0.4,1.2-0.4,2.4-0.1,3.5l-7.6,7.6l-7.6-7.6c0.2-0.5,0.2-1.1,0.2-1.7
				c0-3.2-2.6-5.8-5.8-5.8c-3.2,0-5.8,2.6-5.8,5.8s2.6,5.8,5.8,5.8c0.6,0,1.1-0.1,1.7-0.2l7.6,7.6l-7.6,7.6
				c-1.1-0.3-2.3-0.3-3.5,0.1c-1.7,0.6-3.1,1.9-3.7,3.7c-0.4,1.3-0.4,2.6,0.1,3.9l0.3,0.9l4.1-4.1c0.2-0.2,0.6-0.2,0.9,0L8.3,37
				c0.2,0.2,0.2,0.6,0,0.9L4.3,42l0.9,0.3c0.7,0.2,1.3,0.4,2,0.4c0.6,0,1.2-0.1,1.8-0.3c1.7-0.6,3.1-1.9,3.7-3.7
				c0.4-1.2,0.4-2.4,0.1-3.5l7.6-7.6l7.6,7.6c-0.2,0.5-0.2,1.1-0.2,1.7c0,3.2,2.6,5.8,5.8,5.8c3.2,0,5.8-2.6,5.8-5.8
				C39.4,33.7,36.8,31,33.6,31z M9.2,14.6l-0.4,0.1c-0.5,0.2-1.1,0.3-1.6,0.3c-2.5,0-4.6-2.1-4.6-4.6s2.1-4.6,4.6-4.6
				c2.5,0,4.6,2.1,4.6,4.6c0,0.5-0.1,1.1-0.3,1.6l-0.1,0.4l8.2,8.2l-2.2,2.2L9.2,14.6z M19.5,26.7l-8.2,8.2l0.1,0.4
				c0.4,1,0.4,2,0.1,3.1c-0.4,1.4-1.5,2.5-2.9,2.9c-0.7,0.2-1.4,0.3-2.1,0.2l2.6-2.6c0.3-0.3,0.5-0.8,0.5-1.3s-0.2-1-0.5-1.3
				l-1.3-1.3c-0.7-0.7-1.9-0.7-2.6,0l-2.6,2.6c-0.1-0.7,0-1.4,0.2-2.1C3.3,34,4.4,33,5.7,32.5c1-0.3,2.1-0.3,3.1,0.1l0.4,0.1
				l8.2-8.2l3.9-3.9l8.2-8.2l-0.1-0.4c-0.4-1-0.4-2-0.1-3.1c0.4-1.4,1.5-2.5,2.9-2.9c0.7-0.2,1.4-0.3,2.1-0.2l-2.6,2.6
				C31.2,8.9,31,9.4,31,9.9c0,0.5,0.2,1,0.5,1.3l1.3,1.3c0.7,0.7,1.9,0.7,2.6,0l2.6-2.6c0.1,0.7,0,1.4-0.2,2.1
				c-0.4,1.4-1.5,2.5-2.9,2.9c-1,0.3-2.1,0.3-3.1-0.1l-0.4-0.1l-8.2,8.2L19.5,26.7z M33.6,41.5c-2.5,0-4.6-2.1-4.6-4.6
				c0-0.5,0.1-1.1,0.3-1.6l0.1-0.4l-8.2-8.2l2.2-2.2l8.2,8.2l0.4-0.1c0.5-0.2,1.1-0.3,1.6-0.3c2.5,0,4.6,2.1,4.6,4.6
				S36.1,41.5,33.6,41.5z"/>
		</g>
	</g>
</g>
</svg>
